Lab 1 - Data Wrangling
…
```
## # A tibble: 80 x 10
##    Variable `2016Q1` `2017Q2` `2017Q3` `2017Q4` `2017Q5` `2018Q6` `2018Q7+`
##    <chr>    <chr>    <chr>    <chr>    <chr>    <chr>    <chr>    <chr>    
##  1 Total_A… 5,419,3… 4,985,3… 3,641,3… 2,915,9… 898,769  726,946  381,906  
##  2 Female   3,346,8… 3,015,8… 2,227,3… 1,731,1… 545,359  445,336  240,077  
##  3 Male     2,040,1… 1,939,1… 1,388,8… 1,162,8… 340,875  268,456  133,720  
##  4 Gender_… 32,309   30,284   25,121   21,974   12,535   13,154   8,109    
##  5 Age_18_… 936,199  466,122  212,314  164,880  74,661   56,099   54,785   
##  6 19_24    2,722,8… 2,731,0… 1,740,3… 1,310,2… 294,616  219,227  94,380   
##  7 25_or_G… 1,760,2… 1,788,0… 1,688,6… 1,440,8… 529,478  451,610  232,741  
##  8 Age_Unk… 11       36       39       39       14       10       0        
##  9 Enterin… 1,654,9… 1,032,3… 691,205  633,459  269,398  226,261  139,964  
## 10 Enterin… 721,594  686,923  627,393  600,124  229,219  195,891  97,735   
## # … with 70 more rows, and 2 more variables: `2017_18_InitialTotal` <chr>,
## #   `2017_18_FinalTransaction` <chr>
```
…
```
## # A tibble: 80 x 10
##    Variable `2016Q1` `2017Q2` `2017Q3` `2017Q4` `2017Q5` `2018Q6` `2018Q7+`
##    <chr>    <chr>    <chr>    <chr>    <chr>    <chr>    <chr>    <chr>    
##  1 Total_A… 5,419,3… 4,985,3… 3,641,3… 2,915,9… 898,769  726,946  381,906  
##  2 Female   3,346,8… 3,015,8… 2,227,3… 1,731,1… 545,359  445,336  240,077  
##  3 Male     2,040,1… 1,939,1… 1,388,8… 1,162,8… 340,875  268,456  133,720  
##  4 Gender_… 32,309   30,284   25,121   21,974   12,535   13,154   8,109    
##  5 Age_18_… 936,199  466,122  212,314  164,880  74,661   56,099   54,785   
##  6 19_24    2,722,8… 2,731,0… 1,740,3… 1,310,2… 294,616  219,227  94,380   
##  7 25_or_G… 1,760,2… 1,788,0… 1,688,6… 1,440,8… 529,478  451,610  232,741  
##  8 Age_Unk… 11       36       39       39       14       10       0        
##  9 Enterin… 1,654,9… 1,032,3… 691,205  633,459  269,398  226,261  139,964  
## 10 Enterin… 721,594  686,923  627,393  600,124  229,219  195,891  97,735   
## # … with 70 more rows, and 2 more variables: `2017_18_InitialTotal` <chr>,
## #   `2017_18_FinalTransaction` <dbl>
```
---
# Reading in Data - specifying col types

```r
read_csv('data/fafsa-demographics-2017-18.csv', na = "N/A",
           col_types = cols(.default= col_number(),
                            Variable = col_character()
  ))
```

```
## # A tibble: 80 x 10
##    Variable `2016Q1` `2017Q2` `2017Q3` `2017Q4` `2017Q5` `2018Q6` `2018Q7+`
##    <chr>       <dbl>    <dbl>    <dbl>    <dbl>    <dbl>    <dbl>     <dbl>
##  1 Total_A…  5419318  4985325  3641353  2915999   898769   726946    381906
##  2 Female    3346859  3015893  2227392  1731193   545359   445336    240077
##  3 Male      2040150  1939148  1388840  1162832   340875   268456    133720
##  4 Gender_…    32309    30284    25121    21974    12535    13154      8109
##  5 Age_18_…   936199   466122   212314   164880    74661    56099     54785
##  6 19_24     2722824  2731080  1740355  1310278   294616   219227     94380
##  7 25_or_G…  1760284  1788087  1688645  1440802   529478   451610    232741
##  8 Age_Unk…       11       36       39       39       14       10         0
##  9 Enterin…  1654912  1032302   691205   633459   269398   226261    139964
## 10 Enterin…   721594   686923   627393   600124   229219   195891     97735
## # … with 70 more rows, and 2 more variables: `2017_18_InitialTotal` <dbl>,
## #   `2017_18_FinalTransaction` <dbl>
```
…
